Demo 07: Visualizing trends and time series data – Data Visualization 36-613 Fall 24
…
phd_field <- read_csv("https://raw.githubusercontent.com/rfordatascience/tidytuesday/master/data/2019/2019-02-19/phd_by_field.csv")

Rows: 3370 Columns: 5
── Column specification ────────────────────────────────────────────────────────
Delimiter: ","
chr (3): broad_field, major_field, field
dbl (2): year, n_phds

ℹ Use `spec()` to retrieve the full column specification for this data.
ℹ Specify the column types or set `show_col_types = FALSE` to quiet this message.

phd_field

# A tibble: 3,370 × 5
   broad_field   major_field                                 field   year n_phds
   <chr>         <chr>                                       <chr>  <dbl>  <dbl>
 1 Life sciences Agricultural sciences and natural resources Agric…  2008    111
 2 Life sciences Agricultural sciences and natural resources Agric…  2008     28
 3 Life sciences Agricultural sciences and natural resources Agric…  2008      3
 4 Life sciences Agricultural sciences and natural resources Agron…  2008     68
 5 Life sciences Agricultural sciences and natural resources Anima…  2008     41
 6 Life sciences Agricultural sciences and natural resources Anima…  2008     18
 7 Life sciences Agricultural sciences and natural resources Anima…  2008     77
 8 Life sciences Agricultural sciences and natural resources Envir…  2008    182
 9 Life sciences Agricultural sciences and natural resources Fishi…  2008     52
10 Life sciences Agricultural sciences and natural resources Food …  2008     96
# ℹ 3,360 more rows
…
